texts
[[1, 'practice_1_031.wav', 52], [2, 'practice_2_054.wav', 59], [3, 'practice_3_252.wav', 55], [4, '005_nat.wav', 42], [5, '011_nat.wav', 72], [6, '017_nat.wav', 55], [7, '030_nat.wav', 51], [8, '034_nat.wav', 53], [9, '042_nat.wav', 43], [10, '043_nat.wav', 60], [11, '047_nat.wav', 29], [12, '053_nat.wav', 48], [13, '056_nat.wav', 51], [14, '061_nat.wav', 38], [15, '062_nat.wav', 61], [16, '064_nat.wav', 46], [17, '066_nat.wav', 44], [18, '076_nat.wav', 55], [19, '080_nat.wav', 44], [20, '084_nat.wav', 35], [21, '095_nat.wav', 36], [22, '097_nat.wav', 49], [23, '110_nat.wav', 42], [24, '111_nat.wav', 44], [25, '114_nat.wav', 88], [26, '128_nat.wav', 38], [27, '138_nat.wav', 59], [28, '141_nat.wav', 47], [29, '143_nat.wav', 43], [30, '145_nat.wav', 84], [31, '155_nat.wav', 64], [32, '162_nat.wav', 42], [33, '175_nat.wav', 82], [34, '200_nat.wav', 77], [35, '201_nat.wav', 34], [36, '205_nat.wav', 51], [37, '207_nat.wav', 63], [38, '210_nat.wav', 49], [39, '219_nat.wav', 48], [40, '234_nat.wav', 51], [41, '237_nat.wav', 43], [42, '238_nat.wav', 51], [43, '241_nat.wav', 29], [44, '242_nat.wav', 47], [45, '255_nat.wav', 47], [46, '257_nat.wav', 43], [47, '258_nat.wav', 37], [48, '263_nat.wav', 63], [49, '266_nat.wav', 40], [50, '268_nat.wav', 57], [51, '277_nat.wav', 55], [52, '278_nat.wav', 42], [53, '280_nat.wav', 58]]
text_from_user_list
[1, 1, 1, 1, 1, 1, 1, 2, 3, 32, 6, 1, 2, 1]
text_session_checkbox_zip
[(1, 'qniiz0pus7vb48aj0jpu6yso6vqc0min', [4, 9, 16, 22, 27, 30, 37]), (1, 'qniiz0pus7vb48aj0jpu6yso6vqc0min', [4, 9, 16, 22, 27, 30, 37]), (1, 'qniiz0pus7vb48aj0jpu6yso6vqc0min', ['']), (1, 'qniiz0pus7vb48aj0jpu6yso6vqc0min', [0, 32, 51]), (1, 'qniiz0pus7vb48aj0jpu6yso6vqc0min', [12, 18, 35, 36, 37, 38, 42, 43, 44, 45, 46, 47, 48, 49, 50, 51]), (1, 'qniiz0pus7vb48aj0jpu6yso6vqc0min', ['']), (1, 'qniiz0pus7vb48aj0jpu6yso6vqc0min', ['']), (2, 'qniiz0pus7vb48aj0jpu6yso6vqc0min', [16, 22, 30, 37, 50, 51]), (3, 'qniiz0pus7vb48aj0jpu6yso6vqc0min', ['']), (32, 'qniiz0pus7vb48aj0jpu6yso6vqc0min', [0, 7, 13, 30, 39, 41]), (6, 'qniiz0pus7vb48aj0jpu6yso6vqc0min', ['']), (1, 'e8r50vnwwa8mvyd6qxf088nzg4x7i5rp', [0, 51]), (2, 'e8r50vnwwa8mvyd6qxf088nzg4x7i5rp', [0, 58]), (1, 'bqjv5q6ju88g5qdxt2trp5j0zvedjn80', [0, 51])]
session_list
['qniiz0pus7vb48aj0jpu6yso6vqc0min', 'qniiz0pus7vb48aj0jpu6yso6vqc0min', 'qniiz0pus7vb48aj0jpu6yso6vqc0min', 'qniiz0pus7vb48aj0jpu6yso6vqc0min', 'qniiz0pus7vb48aj0jpu6yso6vqc0min', 'qniiz0pus7vb48aj0jpu6yso6vqc0min', 'qniiz0pus7vb48aj0jpu6yso6vqc0min', 'qniiz0pus7vb48aj0jpu6yso6vqc0min', 'qniiz0pus7vb48aj0jpu6yso6vqc0min', 'qniiz0pus7vb48aj0jpu6yso6vqc0min', 'qniiz0pus7vb48aj0jpu6yso6vqc0min', 'e8r50vnwwa8mvyd6qxf088nzg4x7i5rp', 'e8r50vnwwa8mvyd6qxf088nzg4x7i5rp', 'bqjv5q6ju88g5qdxt2trp5j0zvedjn80']
session_dict
{'qniiz0pus7vb48aj0jpu6yso6vqc0min': None, 'e8r50vnwwa8mvyd6qxf088nzg4x7i5rp': None, 'bqjv5q6ju88g5qdxt2trp5j0zvedjn80': None}
time
[(datetime.datetime(2020, 12, 11, 21, 1, 17, 872697), '259s6f2oa6unx6c1tqewq048wenssawz'), (datetime.datetime(2020, 12, 11, 21, 1, 37, 533353), 'waxbve1ljnzuqngzndw69znd3p9kjyyp'), (datetime.datetime(2021, 2, 18, 21, 37, 6, 72998), 'mc59e1xw2fohuw1x8mlgam40020cn91l'), (datetime.datetime(2021, 2, 18, 21, 39, 3, 987727), 'tlpv07jydpnoivduvkjhl0bnsdx9qxbz'), (datetime.datetime(2021, 2, 18, 21, 46, 29, 707327), 'vbzabcefwm301d4oqrtoxs35vsi6l0hj'), (datetime.datetime(2021, 2, 18, 21, 55, 28, 52375), 'osq8erdpr13f6bq9iqn3l70kqthg4s8z'), (datetime.datetime(2021, 2, 18, 23, 16, 56, 837239), '56tntmj7ij734r6qdx6wbawyfomu4omp'), (datetime.datetime(2021, 2, 18, 23, 18, 50, 40341), 'fs9144y95dyddqalsyfwrpgr3lesup4x'), (datetime.datetime(2021, 2, 21, 18, 15, 4, 915864), 'wqync0uffcw1o8g58sz1kdot22f32ntu'), (datetime.datetime(2021, 2, 24, 22, 53, 45, 188767), 'xo3s0c2zvmyvydoh1dtax3lidcsva2mm'), (datetime.datetime(2021, 2, 25, 21, 39, 52, 800776), 'rhio0bi0fkxoybqs9ezcylaqsw9vjn9x'), (datetime.datetime(2021, 2, 27, 15, 28, 44, 698033), 'e8r50vnwwa8mvyd6qxf088nzg4x7i5rp'), (datetime.datetime(2021, 2, 27, 19, 1, 40, 536291), 'bqjv5q6ju88g5qdxt2trp5j0zvedjn80')]
check_list
[[4, 9, 16, 22, 27, 30, 37], [4, 9, 16, 22, 27, 30, 37], [''], [0, 32, 51], [12, 18, 35, 36, 37, 38, 42, 43, 44, 45, 46, 47, 48, 49, 50, 51], [''], [''], [16, 22, 30, 37, 50, 51], [''], [0, 7, 13, 30, 39, 41], [''], [0, 51], [0, 58], [0, 51]]
resent_results
{1: [('qniiz0pus7vb48aj0jpu6yso6vqc0min', [0, 0, 0, 0, 1, 0, 0, 0, 0, 1, 0, 0, 0, 0, 0, 0, 1, 0, 0, 0, 0, 0, 1, 0, 0, 0, 0, 1, 0, 0, 1, 0, 0, 0, 0, 0, 0, 1, 0, 0, 0, 0, 0, 0, 0, 0, 0, 0, 0, 0, 0, 0]), ('qniiz0pus7vb48aj0jpu6yso6vqc0min', [0, 0, 0, 0, 1, 0, 0, 0, 0, 1, 0, 0, 0, 0, 0, 0, 1, 0, 0, 0, 0, 0, 1, 0, 0, 0, 0, 1, 0, 0, 1, 0, 0, 0, 0, 0, 0, 1, 0, 0, 0, 0, 0, 0, 0, 0, 0, 0, 0, 0, 0, 0]), ('qniiz0pus7vb48aj0jpu6yso6vqc0min', [0, 0, 0, 0, 0, 0, 0, 0, 0, 0, 0, 0, 0, 0, 0, 0, 0, 0, 0, 0, 0, 0, 0, 0, 0, 0, 0, 0, 0, 0, 0, 0, 0, 0, 0, 0, 0, 0, 0, 0, 0, 0, 0, 0, 0, 0, 0, 0, 0, 0, 0, 0]), ('qniiz0pus7vb48aj0jpu6yso6vqc0min', [1, 0, 0, 0, 0, 0, 0, 0, 0, 0, 0, 0, 0, 0, 0, 0, 0, 0, 0, 0, 0, 0, 0, 0, 0, 0, 0, 0, 0, 0, 0, 0, 1, 0, 0, 0, 0, 0, 0, 0, 0, 0, 0, 0, 0, 0, 0, 0, 0, 0, 0, 1]), ('qniiz0pus7vb48aj0jpu6yso6vqc0min', [0, 0, 0, 0, 0, 0, 0, 0, 0, 0, 0, 0, 1, 0, 0, 0, 0, 0, 1, 0, 0, 0, 0, 0, 0, 0, 0, 0, 0, 0, 0, 0, 0, 0, 0, 1, 1, 1, 1, 0, 0, 0, 1, 1, 1, 1, 1, 1, 1, 1, 1, 1]), ('qniiz0pus7vb48aj0jpu6yso6vqc0min', [0, 0, 0, 0, 0, 0, 0, 0, 0, 0, 0, 0, 0, 0, 0, 0, 0, 0, 0, 0, 0, 0, 0, 0, 0, 0, 0, 0, 0, 0, 0, 0, 0, 0, 0, 0, 0, 0, 0, 0, 0, 0, 0, 0, 0, 0, 0, 0, 0, 0, 0, 0]), ('qniiz0pus7vb48aj0jpu6yso6vqc0min', [0, 0, 0, 0, 0, 0, 0, 0, 0, 0, 0, 0, 0, 0, 0, 0, 0, 0, 0, 0, 0, 0, 0, 0, 0, 0, 0, 0, 0, 0, 0, 0, 0, 0, 0, 0, 0, 0, 0, 0, 0, 0, 0, 0, 0, 0, 0, 0, 0, 0, 0, 0]), ('e8r50vnwwa8mvyd6qxf088nzg4x7i5rp', [1, 0, 0, 0, 0, 0, 0, 0, 0, 0, 0, 0, 0, 0, 0, 0, 0, 0, 0, 0, 0, 0, 0, 0, 0, 0, 0, 0, 0, 0, 0, 0, 0, 0, 0, 0, 0, 0, 0, 0, 0, 0, 0, 0, 0, 0, 0, 0, 0, 0, 0, 1]), ('bqjv5q6ju88g5qdxt2trp5j0zvedjn80', [1, 0, 0, 0, 0, 0, 0, 0, 0, 0, 0, 0, 0, 0, 0, 0, 0, 0, 0, 0, 0, 0, 0, 0, 0, 0, 0, 0, 0, 0, 0, 0, 0, 0, 0, 0, 0, 0, 0, 0, 0, 0, 0, 0, 0, 0, 0, 0, 0, 0, 0, 1])], 2: [('qniiz0pus7vb48aj0jpu6yso6vqc0min', [0, 0, 0, 0, 0, 0, 0, 0, 0, 0, 0, 0, 0, 0, 0, 0, 1, 0, 0, 0, 0, 0, 1, 0, 0, 0, 0, 0, 0, 0, 1, 0, 0, 0, 0, 0, 0, 1, 0, 0, 0, 0, 0, 0, 0, 0, 0, 0, 0, 0, 1, 1, 0, 0, 0, 0, 0, 0, 0]), ('e8r50vnwwa8mvyd6qxf088nzg4x7i5rp', [1, 0, 0, 0, 0, 0, 0, 0, 0, 0, 0, 0, 0, 0, 0, 0, 0, 0, 0, 0, 0, 0, 0, 0, 0, 0, 0, 0, 0, 0, 0, 0, 0, 0, 0, 0, 0, 0, 0, 0, 0, 0, 0, 0, 0, 0, 0, 0, 0, 0, 0, 0, 0, 0, 0, 0, 0, 0, 1])], 3: [('qniiz0pus7vb48aj0jpu6yso6vqc0min', [0, 0, 0, 0, 0, 0, 0, 0, 0, 0, 0, 0, 0, 0, 0, 0, 0, 0, 0, 0, 0, 0, 0, 0, 0, 0, 0, 0, 0, 0, 0, 0, 0, 0, 0, 0, 0, 0, 0, 0, 0, 0, 0, 0, 0, 0, 0, 0, 0, 0, 0, 0, 0, 0, 0])], 32: [('qniiz0pus7vb48aj0jpu6yso6vqc0min', [1, 0, 0, 0, 0, 0, 0, 1, 0, 0, 0, 0, 0, 1, 0, 0, 0, 0, 0, 0, 0, 0, 0, 0, 0, 0, 0, 0, 0, 0, 1, 0, 0, 0, 0, 0, 0, 0, 0, 1, 0, 1])], 6: [('qniiz0pus7vb48aj0jpu6yso6vqc0min', [0, 0, 0, 0, 0, 0, 0, 0, 0, 0, 0, 0, 0, 0, 0, 0, 0, 0, 0, 0, 0, 0, 0, 0, 0, 0, 0, 0, 0, 0, 0, 0, 0, 0, 0, 0, 0, 0, 0, 0, 0, 0, 0, 0, 0, 0, 0, 0, 0, 0, 0, 0, 0, 0, 0])]}
